{
    "_id" : ObjectId("59e9eefade682d20f9eff92b"),
    "creatoruser" : "0",
    "creationdate" : NumberLong(1503602280515),
    "validfrom" : NumberLong(-2208988800000),
    "validto" : NumberLong(95617584000000),
    "datatype" : "instance",
    "instancename" : "visionthing",
    "instancemanipulationrights" : "11",
    "instancenr" : "599f26680f4e770f73fa16df",
    "desc" : {
        "de_ch" : "{visionthing}",
        "fallback" : "de_ch",
        "en" : "{visionthing}"
    }
}

{
    "_id" : ObjectId("59e9eefade682d20f9eff92c"),
    "creatoruser" : "0",
    "creationdate" : NumberLong(1503602280515),
    "validfrom" : NumberLong(-2208988800000),
    "validto" : NumberLong(95617584000000),
    "datatype" : "instance",
    "instancename" : "paracelsus",
    "instancemanipulationrights" : "11",
    "instancenr" : "599f26680f4e770f73fa16e0",
    "desc" : {
        "de_ch" : "Paracelsus Kliniken",
        "fallback" : "de_ch",
        "en" : "Paracelsus Kliniken"
    }
}
