{
  "action": "search",
  "signature": "no_check",
  "reciever": "hekate",
  "sender": "aletheia",
  "transactionid": "abcd",
  "data": {
    "transaction": "transactionid",
    "lang": "de_ch",
    "overviewSearch": {
      "session": "sessionnumber",
      "from": "partner",
      "type": "and",
      "conditions": {
          "firstname" : "Allie"
      }
    }
  }
}